<?xml version="1.0" encoding="UTF-8"?>
<session version="1.0">
<refactoring comment="Copy 3 elements to &apos;model&apos;&#x0D;&#x0A;- Original project: &apos;Trainning&apos;&#x0D;&#x0A;- Destination element: &apos;model&apos;&#x0D;&#x0A;- Original elements:&#x0D;&#x0A;     model.Position.java&#x0D;&#x0A;     model.Attendance.java&#x0D;&#x0A;     model.Employee.java" description="Copy compilation units" element1="/src&lt;model{Position.java" element2="/src&lt;model{Attendance.java" element3="/src&lt;model{Employee.java" files="0" flags="589830" folders="0" id="org.eclipse.jdt.ui.copy" policy="org.eclipse.jdt.ui.copyResources" stamp="1557298380052" target="/demo/model" units="3" version="1.0"/>
</session>