Suite/Test/Step Name,Browser,Description,Tag,Start time,End time,Duration,Status
TestSuiteExcel,Chrome 74.0.3729.131,,,2019-05-14 17:16:53,2019-05-14 17:18:43,1m - 50.000s,FAILED
,,,,,,,
Test Cases/assignment,Chrome 74.0.3729.131,,,2019-05-14 17:16:53,2019-05-14 17:17:10,17.249s,FAILED
Start listener action : sampleBeforeTestCase,Chrome 74.0.3729.131,,,2019-05-14 17:16:53,2019-05-14 17:16:53,0.001s,PASSED
"openBrowser("""")",Chrome 74.0.3729.131,,,2019-05-14 17:16:54,2019-05-14 17:17:03,8.870s,PASSED
"navigateToUrl(""https://katalon-demo-cura.herokuapp.com/"")",Chrome 74.0.3729.131,,,2019-05-14 17:17:03,2019-05-14 17:17:07,4.276s,PASSED
"click(findTestObject(""Object Repository/Page_CURA Healthcare Service/a_Make Appointment""))",Chrome 74.0.3729.131,,,2019-05-14 17:17:07,2019-05-14 17:17:08,1.340s,PASSED
"setText(findTestObject(""Object Repository/Page_CURA Healthcare Service/input_Username_username""), user)",Chrome 74.0.3729.131,,,2019-05-14 17:17:08,2019-05-14 17:17:08,0.158s,PASSED
"setText(findTestObject(""Page_CURA Healthcare Service/input_Password_password""), password)",Chrome 74.0.3729.131,,,2019-05-14 17:17:08,2019-05-14 17:17:08,0.157s,PASSED
"click(findTestObject(""Object Repository/Page_CURA Healthcare Service/button_Login""))",Chrome 74.0.3729.131,,,2019-05-14 17:17:08,2019-05-14 17:17:09,0.911s,PASSED
"if (status == ""x"")",Chrome 74.0.3729.131,,,2019-05-14 17:17:09,2019-05-14 17:17:10,1.059s,FAILED
Start listener action : sampleAfterTestCase,Chrome 74.0.3729.131,,,2019-05-14 17:17:10,2019-05-14 17:17:10,0.001s,PASSED
,,,,,,,
Test Cases/assignment,Chrome 74.0.3729.131,,,2019-05-14 17:17:10,2019-05-14 17:17:24,13.966s,PASSED
Start listener action : sampleBeforeTestCase,Chrome 74.0.3729.131,,,2019-05-14 17:17:10,2019-05-14 17:17:10,0.000s,PASSED
"openBrowser("""")",Chrome 74.0.3729.131,,,2019-05-14 17:17:10,2019-05-14 17:17:18,7.628s,PASSED
"navigateToUrl(""https://katalon-demo-cura.herokuapp.com/"")",Chrome 74.0.3729.131,,,2019-05-14 17:17:18,2019-05-14 17:17:21,3.389s,PASSED
"click(findTestObject(""Object Repository/Page_CURA Healthcare Service/a_Make Appointment""))",Chrome 74.0.3729.131,,,2019-05-14 17:17:21,2019-05-14 17:17:22,0.740s,PASSED
"setText(findTestObject(""Object Repository/Page_CURA Healthcare Service/input_Username_username""), user)",Chrome 74.0.3729.131,,,2019-05-14 17:17:22,2019-05-14 17:17:22,0.135s,PASSED
"setText(findTestObject(""Page_CURA Healthcare Service/input_Password_password""), password)",Chrome 74.0.3729.131,,,2019-05-14 17:17:22,2019-05-14 17:17:23,0.301s,PASSED
"click(findTestObject(""Object Repository/Page_CURA Healthcare Service/button_Login""))",Chrome 74.0.3729.131,,,2019-05-14 17:17:23,2019-05-14 17:17:24,0.844s,PASSED
"if (status == ""x"")",Chrome 74.0.3729.131,,,2019-05-14 17:17:24,2019-05-14 17:17:24,0.190s,PASSED
closeBrowser(),Chrome 74.0.3729.131,,,2019-05-14 17:17:24,2019-05-14 17:17:24,0.707s,PASSED
Start listener action : sampleAfterTestCase,Chrome 74.0.3729.131,,,2019-05-14 17:17:24,2019-05-14 17:17:24,0.002s,PASSED
,,,,,,,
Test Cases/assignment,Chrome 74.0.3729.131,,,2019-05-14 17:17:24,2019-05-14 17:17:37,12.665s,PASSED
Start listener action : sampleBeforeTestCase,Chrome 74.0.3729.131,,,2019-05-14 17:17:24,2019-05-14 17:17:24,0.001s,PASSED
"openBrowser("""")",Chrome 74.0.3729.131,,,2019-05-14 17:17:24,2019-05-14 17:17:31,6.526s,PASSED
"navigateToUrl(""https://katalon-demo-cura.herokuapp.com/"")",Chrome 74.0.3729.131,,,2019-05-14 17:17:31,2019-05-14 17:17:34,3.075s,PASSED
"click(findTestObject(""Object Repository/Page_CURA Healthcare Service/a_Make Appointment""))",Chrome 74.0.3729.131,,,2019-05-14 17:17:34,2019-05-14 17:17:35,0.861s,PASSED
"setText(findTestObject(""Object Repository/Page_CURA Healthcare Service/input_Username_username""), user)",Chrome 74.0.3729.131,,,2019-05-14 17:17:35,2019-05-14 17:17:35,0.139s,PASSED
"setText(findTestObject(""Page_CURA Healthcare Service/input_Password_password""), password)",Chrome 74.0.3729.131,,,2019-05-14 17:17:35,2019-05-14 17:17:35,0.357s,PASSED
"click(findTestObject(""Object Repository/Page_CURA Healthcare Service/button_Login""))",Chrome 74.0.3729.131,,,2019-05-14 17:17:35,2019-05-14 17:17:36,0.741s,PASSED
"if (status == ""x"")",Chrome 74.0.3729.131,,,2019-05-14 17:17:36,2019-05-14 17:17:36,0.160s,PASSED
closeBrowser(),Chrome 74.0.3729.131,,,2019-05-14 17:17:36,2019-05-14 17:17:37,0.759s,PASSED
Start listener action : sampleAfterTestCase,Chrome 74.0.3729.131,,,2019-05-14 17:17:37,2019-05-14 17:17:37,0.001s,PASSED
,,,,,,,
Test Cases/assignment,Chrome 74.0.3729.131,,,2019-05-14 17:17:37,2019-05-14 17:17:49,11.472s,PASSED
Start listener action : sampleBeforeTestCase,Chrome 74.0.3729.131,,,2019-05-14 17:17:37,2019-05-14 17:17:37,0.001s,PASSED
"openBrowser("""")",Chrome 74.0.3729.131,,,2019-05-14 17:17:37,2019-05-14 17:17:42,5.109s,PASSED
"navigateToUrl(""https://katalon-demo-cura.herokuapp.com/"")",Chrome 74.0.3729.131,,,2019-05-14 17:17:42,2019-05-14 17:17:46,3.696s,PASSED
"click(findTestObject(""Object Repository/Page_CURA Healthcare Service/a_Make Appointment""))",Chrome 74.0.3729.131,,,2019-05-14 17:17:46,2019-05-14 17:17:47,0.670s,PASSED
"setText(findTestObject(""Object Repository/Page_CURA Healthcare Service/input_Username_username""), user)",Chrome 74.0.3729.131,,,2019-05-14 17:17:47,2019-05-14 17:17:47,0.159s,PASSED
"setText(findTestObject(""Page_CURA Healthcare Service/input_Password_password""), password)",Chrome 74.0.3729.131,,,2019-05-14 17:17:47,2019-05-14 17:17:47,0.134s,PASSED
"click(findTestObject(""Object Repository/Page_CURA Healthcare Service/button_Login""))",Chrome 74.0.3729.131,,,2019-05-14 17:17:47,2019-05-14 17:17:48,0.779s,PASSED
"if (status == ""x"")",Chrome 74.0.3729.131,,,2019-05-14 17:17:48,2019-05-14 17:17:48,0.118s,PASSED
closeBrowser(),Chrome 74.0.3729.131,,,2019-05-14 17:17:48,2019-05-14 17:17:49,0.750s,PASSED
Start listener action : sampleAfterTestCase,Chrome 74.0.3729.131,,,2019-05-14 17:17:49,2019-05-14 17:17:49,0.002s,PASSED
,,,,,,,
Test Cases/assignment,Chrome 74.0.3729.131,,,2019-05-14 17:17:49,2019-05-14 17:18:01,12.052s,PASSED
Start listener action : sampleBeforeTestCase,Chrome 74.0.3729.131,,,2019-05-14 17:17:49,2019-05-14 17:17:49,0.000s,PASSED
"openBrowser("""")",Chrome 74.0.3729.131,,,2019-05-14 17:17:49,2019-05-14 17:17:55,6.212s,PASSED
"navigateToUrl(""https://katalon-demo-cura.herokuapp.com/"")",Chrome 74.0.3729.131,,,2019-05-14 17:17:55,2019-05-14 17:17:58,3.420s,PASSED
"click(findTestObject(""Object Repository/Page_CURA Healthcare Service/a_Make Appointment""))",Chrome 74.0.3729.131,,,2019-05-14 17:17:58,2019-05-14 17:17:59,0.557s,PASSED
"setText(findTestObject(""Object Repository/Page_CURA Healthcare Service/input_Username_username""), user)",Chrome 74.0.3729.131,,,2019-05-14 17:17:59,2019-05-14 17:17:59,0.167s,PASSED
"setText(findTestObject(""Page_CURA Healthcare Service/input_Password_password""), password)",Chrome 74.0.3729.131,,,2019-05-14 17:17:59,2019-05-14 17:17:59,0.178s,PASSED
"click(findTestObject(""Object Repository/Page_CURA Healthcare Service/button_Login""))",Chrome 74.0.3729.131,,,2019-05-14 17:17:59,2019-05-14 17:18:00,0.689s,PASSED
"if (status == ""x"")",Chrome 74.0.3729.131,,,2019-05-14 17:18:00,2019-05-14 17:18:00,0.121s,PASSED
closeBrowser(),Chrome 74.0.3729.131,,,2019-05-14 17:18:00,2019-05-14 17:18:01,0.679s,PASSED
Start listener action : sampleAfterTestCase,Chrome 74.0.3729.131,,,2019-05-14 17:18:01,2019-05-14 17:18:01,0.001s,PASSED
,,,,,,,
Test Cases/assignment,Chrome 74.0.3729.131,,,2019-05-14 17:18:01,2019-05-14 17:18:10,9.045s,PASSED
Start listener action : sampleBeforeTestCase,Chrome 74.0.3729.131,,,2019-05-14 17:18:01,2019-05-14 17:18:01,0.001s,PASSED
"openBrowser("""")",Chrome 74.0.3729.131,,,2019-05-14 17:18:01,2019-05-14 17:18:04,2.975s,PASSED
"navigateToUrl(""https://katalon-demo-cura.herokuapp.com/"")",Chrome 74.0.3729.131,,,2019-05-14 17:18:04,2019-05-14 17:18:07,3.211s,PASSED
"click(findTestObject(""Object Repository/Page_CURA Healthcare Service/a_Make Appointment""))",Chrome 74.0.3729.131,,,2019-05-14 17:18:07,2019-05-14 17:18:08,0.756s,PASSED
"setText(findTestObject(""Object Repository/Page_CURA Healthcare Service/input_Username_username""), user)",Chrome 74.0.3729.131,,,2019-05-14 17:18:08,2019-05-14 17:18:08,0.167s,PASSED
"setText(findTestObject(""Page_CURA Healthcare Service/input_Password_password""), password)",Chrome 74.0.3729.131,,,2019-05-14 17:18:08,2019-05-14 17:18:08,0.244s,PASSED
"click(findTestObject(""Object Repository/Page_CURA Healthcare Service/button_Login""))",Chrome 74.0.3729.131,,,2019-05-14 17:18:08,2019-05-14 17:18:09,0.725s,PASSED
"if (status == ""x"")",Chrome 74.0.3729.131,,,2019-05-14 17:18:09,2019-05-14 17:18:09,0.165s,PASSED
closeBrowser(),Chrome 74.0.3729.131,,,2019-05-14 17:18:09,2019-05-14 17:18:10,0.744s,PASSED
Start listener action : sampleAfterTestCase,Chrome 74.0.3729.131,,,2019-05-14 17:18:10,2019-05-14 17:18:10,0.001s,PASSED
,,,,,,,
Test Cases/assignment,Chrome 74.0.3729.131,,,2019-05-14 17:18:10,2019-05-14 17:18:19,9.262s,PASSED
Start listener action : sampleBeforeTestCase,Chrome 74.0.3729.131,,,2019-05-14 17:18:10,2019-05-14 17:18:10,0.001s,PASSED
"openBrowser("""")",Chrome 74.0.3729.131,,,2019-05-14 17:18:10,2019-05-14 17:18:12,2.727s,PASSED
"navigateToUrl(""https://katalon-demo-cura.herokuapp.com/"")",Chrome 74.0.3729.131,,,2019-05-14 17:18:12,2019-05-14 17:18:16,3.844s,PASSED
"click(findTestObject(""Object Repository/Page_CURA Healthcare Service/a_Make Appointment""))",Chrome 74.0.3729.131,,,2019-05-14 17:18:16,2019-05-14 17:18:17,0.700s,PASSED
"setText(findTestObject(""Object Repository/Page_CURA Healthcare Service/input_Username_username""), user)",Chrome 74.0.3729.131,,,2019-05-14 17:18:17,2019-05-14 17:18:17,0.172s,PASSED
"setText(findTestObject(""Page_CURA Healthcare Service/input_Password_password""), password)",Chrome 74.0.3729.131,,,2019-05-14 17:18:17,2019-05-14 17:18:17,0.185s,PASSED
"click(findTestObject(""Object Repository/Page_CURA Healthcare Service/button_Login""))",Chrome 74.0.3729.131,,,2019-05-14 17:18:17,2019-05-14 17:18:18,0.852s,PASSED
"if (status == ""x"")",Chrome 74.0.3729.131,,,2019-05-14 17:18:18,2019-05-14 17:18:18,0.069s,PASSED
closeBrowser(),Chrome 74.0.3729.131,,,2019-05-14 17:18:18,2019-05-14 17:18:19,0.682s,PASSED
Start listener action : sampleAfterTestCase,Chrome 74.0.3729.131,,,2019-05-14 17:18:19,2019-05-14 17:18:19,0.001s,PASSED
,,,,,,,
Test Cases/assignment,Chrome 74.0.3729.131,,,2019-05-14 17:18:19,2019-05-14 17:18:29,10.208s,PASSED
Start listener action : sampleBeforeTestCase,Chrome 74.0.3729.131,,,2019-05-14 17:18:19,2019-05-14 17:18:19,0.001s,PASSED
"openBrowser("""")",Chrome 74.0.3729.131,,,2019-05-14 17:18:19,2019-05-14 17:18:22,2.703s,PASSED
"navigateToUrl(""https://katalon-demo-cura.herokuapp.com/"")",Chrome 74.0.3729.131,,,2019-05-14 17:18:22,2019-05-14 17:18:26,4.635s,PASSED
"click(findTestObject(""Object Repository/Page_CURA Healthcare Service/a_Make Appointment""))",Chrome 74.0.3729.131,,,2019-05-14 17:18:26,2019-05-14 17:18:27,0.870s,PASSED
"setText(findTestObject(""Object Repository/Page_CURA Healthcare Service/input_Username_username""), user)",Chrome 74.0.3729.131,,,2019-05-14 17:18:27,2019-05-14 17:18:27,0.170s,PASSED
"setText(findTestObject(""Page_CURA Healthcare Service/input_Password_password""), password)",Chrome 74.0.3729.131,,,2019-05-14 17:18:27,2019-05-14 17:18:28,0.180s,PASSED
"click(findTestObject(""Object Repository/Page_CURA Healthcare Service/button_Login""))",Chrome 74.0.3729.131,,,2019-05-14 17:18:28,2019-05-14 17:18:28,0.731s,PASSED
"if (status == ""x"")",Chrome 74.0.3729.131,,,2019-05-14 17:18:28,2019-05-14 17:18:28,0.123s,PASSED
closeBrowser(),Chrome 74.0.3729.131,,,2019-05-14 17:18:28,2019-05-14 17:18:29,0.722s,PASSED
Start listener action : sampleAfterTestCase,Chrome 74.0.3729.131,,,2019-05-14 17:18:29,2019-05-14 17:18:29,0.001s,PASSED
,,,,,,,
Test Cases/assignment,Chrome 74.0.3729.131,,,2019-05-14 17:18:29,2019-05-14 17:18:43,13.512s,PASSED
Start listener action : sampleBeforeTestCase,Chrome 74.0.3729.131,,,2019-05-14 17:18:29,2019-05-14 17:18:29,0.001s,PASSED
"openBrowser("""")",Chrome 74.0.3729.131,,,2019-05-14 17:18:29,2019-05-14 17:18:33,3.456s,PASSED
"navigateToUrl(""https://katalon-demo-cura.herokuapp.com/"")",Chrome 74.0.3729.131,,,2019-05-14 17:18:33,2019-05-14 17:18:38,5.416s,PASSED
"click(findTestObject(""Object Repository/Page_CURA Healthcare Service/a_Make Appointment""))",Chrome 74.0.3729.131,,,2019-05-14 17:18:38,2019-05-14 17:18:40,1.464s,PASSED
"setText(findTestObject(""Object Repository/Page_CURA Healthcare Service/input_Username_username""), user)",Chrome 74.0.3729.131,,,2019-05-14 17:18:40,2019-05-14 17:18:40,0.172s,PASSED
"setText(findTestObject(""Page_CURA Healthcare Service/input_Password_password""), password)",Chrome 74.0.3729.131,,,2019-05-14 17:18:40,2019-05-14 17:18:40,0.205s,PASSED
"click(findTestObject(""Object Repository/Page_CURA Healthcare Service/button_Login""))",Chrome 74.0.3729.131,,,2019-05-14 17:18:40,2019-05-14 17:18:42,1.866s,PASSED
"if (status == ""x"")",Chrome 74.0.3729.131,,,2019-05-14 17:18:42,2019-05-14 17:18:42,0.001s,PASSED
else,Chrome 74.0.3729.131,,,2019-05-14 17:18:42,2019-05-14 17:18:42,0.136s,PASSED
closeBrowser(),Chrome 74.0.3729.131,,,2019-05-14 17:18:42,2019-05-14 17:18:43,0.733s,PASSED
Start listener action : sampleAfterTestCase,Chrome 74.0.3729.131,,,2019-05-14 17:18:43,2019-05-14 17:18:43,0.001s,PASSED
