Suite/Test/Step Name,Browser,Description,Tag,Start time,End time,Duration,Status
TestSuiteExcel,Chrome 74.0.3729.131,,,2019-05-13 14:58:06,2019-05-13 14:59:12,1m - 5.687s,PASSED
,,,,,,,
Test Cases/test_katalon2,Chrome 74.0.3729.131,,,2019-05-13 14:58:07,2019-05-13 14:59:09,1m - 2.591s,PASSED
Start listener action : sampleBeforeTestCase,Chrome 74.0.3729.131,,,2019-05-13 14:58:07,2019-05-13 14:58:07,0.001s,PASSED
"openBrowser("""")",Chrome 74.0.3729.131,,,2019-05-13 14:58:07,2019-05-13 14:58:22,15.135s,PASSED
"navigateToUrl(""https://katalon-demo-cura.herokuapp.com"")",Chrome 74.0.3729.131,,,2019-05-13 14:58:22,2019-05-13 14:58:26,3.673s,PASSED
"get.Screencapture.getEntirePage("""")",Chrome 74.0.3729.131,,,2019-05-13 14:58:26,2019-05-13 14:58:33,6.796s,PASSED
"click(findTestObject(""Page_CURA Healthcare Service/a_Make Appointment""))",Chrome 74.0.3729.131,,,2019-05-13 14:58:33,2019-05-13 14:58:35,1.991s,PASSED
"get.Screencapture.getEntirePage("""")",Chrome 74.0.3729.131,,,2019-05-13 14:58:35,2019-05-13 14:58:39,4.881s,PASSED
"setText(findTestObject(""Page_CURA Healthcare Service/input_Username_username""), ""John Doe"")",Chrome 74.0.3729.131,,,2019-05-13 14:58:39,2019-05-13 14:58:40,0.657s,PASSED
"get.Screencapture.getEntirePage("""")",Chrome 74.0.3729.131,,,2019-05-13 14:58:40,2019-05-13 14:58:45,4.765s,PASSED
"setEncryptedText(findTestObject(""Page_CURA Healthcare Service/input_Password_password""), ""g3/DOGG74jC3Flrr3yH+3D/yKbOqqUNM"")",Chrome 74.0.3729.131,,,2019-05-13 14:58:45,2019-05-13 14:58:46,0.658s,PASSED
"get.Screencapture.getEntirePage("""")",Chrome 74.0.3729.131,,,2019-05-13 14:58:46,2019-05-13 14:58:51,5.038s,PASSED
"click(findTestObject(""Page_CURA Healthcare Service/button_Login""))",Chrome 74.0.3729.131,,,2019-05-13 14:58:51,2019-05-13 14:58:52,1.743s,PASSED
"get.Screencapture.getEntirePage("""")",Chrome 74.0.3729.131,,,2019-05-13 14:58:52,2019-05-13 14:58:58,5.196s,PASSED
"click(findTestObject(""Page_CURA Healthcare Service/i_CURA Healthcare_fa fa-bars""))",Chrome 74.0.3729.131,,,2019-05-13 14:58:58,2019-05-13 14:58:58,0.114s,PASSED
"get.Screencapture.getEntirePage("""")",Chrome 74.0.3729.131,,,2019-05-13 14:58:58,2019-05-13 14:59:03,5.293s,PASSED
"click(findTestObject(""Page_CURA Healthcare Service/a_Logout""))",Chrome 74.0.3729.131,,,2019-05-13 14:59:03,2019-05-13 14:59:05,2.196s,PASSED
"get.Screencapture.getEntirePage("""")",Chrome 74.0.3729.131,,,2019-05-13 14:59:05,2019-05-13 14:59:09,4.059s,PASSED
Start listener action : sampleAfterTestCase,Chrome 74.0.3729.131,,,2019-05-13 14:59:09,2019-05-13 14:59:09,0.002s,PASSED
